Aula02/Aula02_Ex03/simulation/qsim/Aula02_Ex03.msim.vcd
$comment
	File created using the following command:
		vcd file Aula02_Ex03.msim.vcd -direction
$end
$date
	Tue Sep  9 14:32:18 2025
$end
$version
	ModelSim Version 2020.1
$end
$timescale
	1ps
$end

$scope module Aula02_Ex03_vlg_vec_tst $end
$var reg 1 ! IN1 $end
$var reg 1 " IN2 $end
$var reg 1 # IN3 $end
$var wire 1 $ S $end

$scope module i1 $end
$var wire 1 % gnd $end
$var wire 1 & vcc $end
$var wire 1 ' unknown $end
$var tri1 1 ( devclrn $end
$var tri1 1 ) devpor $end
$var tri1 1 * devoe $end
$var wire 1 + S~output_o $end
$var wire 1 , IN1~input_o $end
$var wire 1 - IN3~input_o $end
$var wire 1 . IN2~input_o $end
$var wire 1 / inst7~0_combout $end
$upscope $end
$upscope $end
$enddefinitions $end
#0
$dumpvars
0!
0"
0#
1$
0%
1&
x'
1(
1)
1*
1+
0,
0-
0.
1/
$end
#5000
1!
1,
0/
0+
0$
#10000
1"
0!
1.
0,
1/
1+
1$
#15000
1!
1,
#20000
1#
0"
0!
1-
0.
0,
0/
0+
0$
#25000
1!
1,
#30000
1"
0!
1.
0,
#35000
1!
1,
1/
1+
1$
#40000
0#
0"
0!
0-
0.
0,
#45000
1!
1,
0/
0+
0$
#50000
1"
0!
1.
0,
1/
1+
1$
#55000
1!
1,
#60000
1#
0"
0!
1-
0.
0,
0/
0+
0$
#65000
1!
1,
#70000
1"
0!
1.
0,
#75000
1!
1,
1/
1+
1$
