Aula05/ContAsyncAscDesc/simulation/qsim/ContAsyncAscDesc.msim.vcd
$comment
	File created using the following command:
		vcd file ContAsyncAscDesc.msim.vcd -direction
$end
$date
	Tue Sep 30 13:45:11 2025
$end
$version
	ModelSim Version 2020.1
$end
$timescale
	1ps
$end

$scope module ContAsyncAscDesc_vlg_vec_tst $end
$var reg 1 ! Clock $end
$var reg 1 " Reset $end
$var wire 1 # A $end
$var wire 1 $ B $end
$var wire 1 % C $end
$var wire 1 & D $end
$var wire 1 ' E $end
$var wire 1 ( F $end
$var wire 1 ) G $end

$scope module i1 $end
$var wire 1 * gnd $end
$var wire 1 + vcc $end
$var wire 1 , unknown $end
$var tri1 1 - devclrn $end
$var tri1 1 . devpor $end
$var tri1 1 / devoe $end
$var wire 1 0 A~output_o $end
$var wire 1 1 B~output_o $end
$var wire 1 2 C~output_o $end
$var wire 1 3 D~output_o $end
$var wire 1 4 E~output_o $end
$var wire 1 5 F~output_o $end
$var wire 1 6 G~output_o $end
$var wire 1 7 Clock~input_o $end
$var wire 1 8 inst10~0_combout $end
$var wire 1 9 inst10~feeder_combout $end
$var wire 1 : Reset~input_o $end
$var wire 1 ; Reset~inputclkctrl_outclk $end
$var wire 1 < inst10~q $end
$var wire 1 = inst11~0_combout $end
$var wire 1 > inst11~feeder_combout $end
$var wire 1 ? inst11~q $end
$var wire 1 @ inst12~0_combout $end
$var wire 1 A inst12~q $end
$var wire 1 B inst|inst26~0_combout $end
$var wire 1 C inst|inst28~0_combout $end
$var wire 1 D inst|inst15~0_combout $end
$var wire 1 E inst|inst30~0_combout $end
$var wire 1 F inst|inst23~0_combout $end
$var wire 1 G inst|inst24~0_combout $end
$var wire 1 H inst|inst25~combout $end
$upscope $end
$upscope $end
$enddefinitions $end
#0
$dumpvars
0!
0"
0#
0$
0%
0&
0'
0(
1)
0*
1+
x,
1-
1.
1/
00
01
02
03
04
05
16
07
18
19
0:
0;
0<
1=
1>
0?
1@
0A
0B
0C
0D
0E
0F
0G
1H
$end
#10000
1!
17
1<
08
1G
1F
1E
1B
10
13
14
15
1(
1'
1&
1#
09
#20000
0!
07
#30000
1!
17
0<
18
0G
0F
0E
0B
00
03
04
05
0(
0'
0&
0#
19
1?
0=
0H
1G
1D
12
15
06
0)
1(
1%
0>
#40000
0!
07
#50000
1!
17
1<
08
1F
0D
02
14
1'
0%
09
#60000
0!
07
#70000
1!
17
0<
18
0F
1D
12
04
0'
1%
19
0?
1=
1H
0G
0D
02
05
16
1)
0(
0%
1>
1A
0H
1F
1E
1B
0@
10
13
14
06
0)
1'
1&
1#
#80000
0!
07
#90000
1!
17
1<
08
0E
1C
0B
00
11
03
0&
1$
0#
09
#100000
1"
0!
1:
1;
07
0<
0A
18
1H
0F
0C
1@
01
04
16
1)
0'
0$
19
#110000
1!
17
#120000
0!
07
#130000
1!
17
#140000
0!
07
#150000
1!
17
#160000
0!
07
#170000
1!
17
#180000
0!
07
#190000
1!
17
#200000
0"
0!
0:
0;
07
#210000
1!
17
1<
08
1G
1F
1E
1B
10
13
14
15
1(
1'
1&
1#
09
#220000
0!
07
#230000
1!
17
0<
18
0G
0F
0E
0B
00
03
04
05
0(
0'
0&
0#
19
1?
0=
0H
1G
1D
12
15
06
0)
1(
1%
0>
#240000
0!
07
#250000
1!
17
1<
08
1F
0D
02
14
1'
0%
09
#260000
0!
07
#270000
1!
17
0<
18
0F
1D
12
04
0'
1%
19
0?
1=
1H
0G
0D
02
05
16
1)
0(
0%
1>
1A
0H
1F
1E
1B
0@
10
13
14
06
0)
1'
1&
1#
#280000
0!
07
#290000
1!
17
1<
08
0E
1C
0B
00
11
03
0&
1$
0#
09
#300000
1"
0!
1:
1;
07
0<
0A
18
1H
0F
0C
1@
01
04
16
1)
0'
0$
19
#310000
1!
17
#320000
0!
07
#330000
1!
17
#340000
0!
07
#350000
1!
17
#360000
0!
07
#370000
1!
17
#380000
0!
07
#390000
1!
17
#400000
0"
0!
0:
0;
07
#410000
1!
17
1<
08
1G
1F
1E
1B
10
13
14
15
1(
1'
1&
1#
09
#420000
0!
07
#430000
1!
17
0<
18
0G
0F
0E
0B
00
03
04
05
0(
0'
0&
0#
19
1?
0=
0H
1G
1D
12
15
06
0)
1(
1%
0>
#440000
0!
07
#450000
1!
17
1<
08
1F
0D
02
14
1'
0%
09
#460000
0!
07
#470000
1!
17
0<
18
0F
1D
12
04
0'
1%
19
0?
1=
1H
0G
0D
02
05
16
1)
0(
0%
1>
1A
0H
1F
1E
1B
0@
10
13
14
06
0)
1'
1&
1#
#480000
0!
07
#490000
1!
17
1<
08
0E
1C
0B
00
11
03
0&
1$
0#
09
#500000
1"
0!
1:
1;
07
0<
0A
18
1H
0F
0C
1@
01
04
16
1)
0'
0$
19
#510000
1!
17
#520000
0!
07
#530000
1!
17
#540000
0!
07
#550000
1!
17
#560000
0!
07
#570000
1!
17
#580000
0!
07
#590000
1!
17
#600000
0"
0!
0:
0;
07
#610000
1!
17
1<
08
1G
1F
1E
1B
10
13
14
15
1(
1'
1&
1#
09
#620000
0!
07
#630000
1!
17
0<
18
0G
0F
0E
0B
00
03
04
05
0(
0'
0&
0#
19
1?
0=
0H
1G
1D
12
15
06
0)
1(
1%
0>
#640000
0!
07
#650000
1!
17
1<
08
1F
0D
02
14
1'
0%
09
#660000
0!
07
#670000
1!
17
0<
18
0F
1D
12
04
0'
1%
19
0?
1=
1H
0G
0D
02
05
16
1)
0(
0%
1>
1A
0H
1F
1E
1B
0@
10
13
14
06
0)
1'
1&
1#
#680000
0!
07
#690000
1!
17
1<
08
0E
1C
0B
00
11
03
0&
1$
0#
09
#700000
1"
0!
1:
1;
07
0<
0A
18
1H
0F
0C
1@
01
04
16
1)
0'
0$
19
#710000
1!
17
#720000
0!
07
#730000
1!
17
#740000
0!
07
#750000
1!
17
#760000
0!
07
#770000
1!
17
#780000
0!
07
#790000
1!
17
#800000
0"
0!
0:
0;
07
#810000
1!
17
1<
08
1G
1F
1E
1B
10
13
14
15
1(
1'
1&
1#
09
#820000
0!
07
#830000
1!
17
0<
18
0G
0F
0E
0B
00
03
04
05
0(
0'
0&
0#
19
1?
0=
0H
1G
1D
12
15
06
0)
1(
1%
0>
#840000
0!
07
#850000
1!
17
1<
08
1F
0D
02
14
1'
0%
09
#860000
0!
07
#870000
1!
17
0<
18
0F
1D
12
04
0'
1%
19
0?
1=
1H
0G
0D
02
05
16
1)
0(
0%
1>
1A
0H
1F
1E
1B
0@
10
13
14
06
0)
1'
1&
1#
#880000
0!
07
#890000
1!
17
1<
08
0E
1C
0B
00
11
03
0&
1$
0#
09
#900000
1"
0!
1:
1;
07
0<
0A
18
1H
0F
0C
1@
01
04
16
1)
0'
0$
19
#910000
1!
17
#920000
0!
07
#930000
1!
17
#940000
0!
07
#950000
1!
17
#960000
0!
07
#970000
1!
17
#980000
0!
07
#990000
1!
17
