Aula04/Projeto01/simulation/qsim/ContadorAssincrono.msim.vcd
$comment
	File created using the following command:
		vcd file ContadorAssincrono.msim.vcd -direction
$end
$date
	Tue Sep 23 14:49:12 2025
$end
$version
	ModelSim Version 2020.1
$end
$timescale
	1ps
$end

$scope module ContadorAssincrono_vlg_vec_tst $end
$var reg 1 ! Clock $end
$var reg 1 " Reset $end
$var wire 1 # A $end
$var wire 1 $ B $end
$var wire 1 % C $end
$var wire 1 & D $end
$var wire 1 ' E $end
$var wire 1 ( F $end
$var wire 1 ) G $end

$scope module i1 $end
$var wire 1 * gnd $end
$var wire 1 + vcc $end
$var wire 1 , unknown $end
$var tri1 1 - devclrn $end
$var tri1 1 . devpor $end
$var tri1 1 / devoe $end
$var wire 1 0 A~output_o $end
$var wire 1 1 B~output_o $end
$var wire 1 2 C~output_o $end
$var wire 1 3 D~output_o $end
$var wire 1 4 E~output_o $end
$var wire 1 5 F~output_o $end
$var wire 1 6 G~output_o $end
$var wire 1 7 Clock~input_o $end
$var wire 1 8 inst10~0_combout $end
$var wire 1 9 inst10~feeder_combout $end
$var wire 1 : Reset~input_o $end
$var wire 1 ; inst10~q $end
$var wire 1 < inst11~0_combout $end
$var wire 1 = inst11~feeder_combout $end
$var wire 1 > inst11~q $end
$var wire 1 ? inst12~0_combout $end
$var wire 1 @ inst12~q $end
$var wire 1 A inst|inst26~0_combout $end
$var wire 1 B inst|inst28~0_combout $end
$var wire 1 C inst|inst15~0_combout $end
$var wire 1 D inst|inst30~0_combout $end
$var wire 1 E inst|inst23~0_combout $end
$var wire 1 F inst|inst24~0_combout $end
$var wire 1 G inst|inst25~combout $end
$upscope $end
$upscope $end
$enddefinitions $end
#0
$dumpvars
0!
0"
0#
0$
0%
0&
0'
0(
1)
0*
1+
x,
1-
1.
1/
00
01
02
03
04
05
16
07
18
19
0:
0;
1<
1=
0>
1?
0@
0A
0B
0C
0D
0E
0F
1G
$end
#5000
1!
17
#10000
0!
07
1;
08
1F
1E
1D
1A
10
13
14
15
1(
1'
1&
1#
09
#15000
1!
17
#20000
0!
07
0;
18
0F
0E
0D
0A
00
03
04
05
0(
0'
0&
0#
19
1>
0<
0G
1F
1C
12
15
06
0)
1(
1%
0=
#25000
1!
17
#30000
0!
07
1;
08
1E
0C
02
14
1'
0%
09
#35000
1!
17
#40000
0!
07
0;
18
0E
1C
12
04
0'
1%
19
0>
1<
1G
0F
0C
02
05
16
1)
0(
0%
1=
1@
0G
1E
1D
1A
0?
10
13
14
06
0)
1'
1&
1#
#45000
1!
17
#50000
0!
07
1;
08
0D
1B
0A
00
11
03
0&
1$
0#
09
#55000
1!
17
#60000
0!
07
0;
18
1D
0B
1A
10
01
13
1&
0$
1#
19
1>
0<
0E
0D
1B
0A
00
11
03
04
0'
0&
1$
0#
0=
#65000
1!
17
#70000
0!
07
1;
08
1G
1F
1E
1D
0B
01
13
14
15
16
1)
1(
1'
1&
0$
09
#75000
1!
17
#80000
1"
0!
1:
07
0;
0>
0@
18
1<
0F
0E
0D
1?
03
04
05
0(
0'
0&
19
1=
#85000
1!
17
#90000
0!
07
#95000
1!
17
#100000
0!
07
#105000
1!
17
#110000
0!
07
#115000
1!
17
#120000
0!
07
#125000
1!
17
#130000
0!
07
#135000
1!
17
#140000
0!
07
#145000
1!
17
#150000
0!
07
#155000
1!
17
#160000
0"
0!
0:
07
#165000
1!
17
#170000
0!
07
1;
08
1F
1E
1D
1A
10
13
14
15
1(
1'
1&
1#
09
#175000
1!
17
#180000
0!
07
0;
18
0F
0E
0D
0A
00
03
04
05
0(
0'
0&
0#
19
1>
0<
0G
1F
1C
12
15
06
0)
1(
1%
0=
#185000
1!
17
#190000
0!
07
1;
08
1E
0C
02
14
1'
0%
09
#195000
1!
17
#200000
0!
07
0;
18
0E
1C
12
04
0'
1%
19
0>
1<
1G
0F
0C
02
05
16
1)
0(
0%
1=
1@
0G
1E
1D
1A
0?
10
13
14
06
0)
1'
1&
1#
#205000
1!
17
#210000
0!
07
1;
08
0D
1B
0A
00
11
03
0&
1$
0#
09
#215000
1!
17
#220000
0!
07
0;
18
1D
0B
1A
10
01
13
1&
0$
1#
19
1>
0<
0E
0D
1B
0A
00
11
03
04
0'
0&
1$
0#
0=
#225000
1!
17
#230000
0!
07
1;
08
1G
1F
1E
1D
0B
01
13
14
15
16
1)
1(
1'
1&
0$
09
#235000
1!
17
#240000
1"
0!
1:
07
0;
0>
0@
18
1<
0F
0E
0D
1?
03
04
05
0(
0'
0&
19
1=
#245000
1!
17
#250000
0!
07
#255000
1!
17
#260000
0!
07
#265000
1!
17
#270000
0!
07
#275000
1!
17
#280000
0!
07
#285000
1!
17
#290000
0!
07
#295000
1!
17
#300000
0!
07
#305000
1!
17
#310000
0!
07
#315000
1!
17
#320000
0"
0!
0:
07
#325000
1!
17
#330000
0!
07
1;
08
1F
1E
1D
1A
10
13
14
15
1(
1'
1&
1#
09
#335000
1!
17
#340000
0!
07
0;
18
0F
0E
0D
0A
00
03
04
05
0(
0'
0&
0#
19
1>
0<
0G
1F
1C
12
15
06
0)
1(
1%
0=
#345000
1!
17
#350000
0!
07
1;
08
1E
0C
02
14
1'
0%
09
#355000
1!
17
#360000
0!
07
0;
18
0E
1C
12
04
0'
1%
19
0>
1<
1G
0F
0C
02
05
16
1)
0(
0%
1=
1@
0G
1E
1D
1A
0?
10
13
14
06
0)
1'
1&
1#
#365000
1!
17
#370000
0!
07
1;
08
0D
1B
0A
00
11
03
0&
1$
0#
09
#375000
1!
17
#380000
0!
07
0;
18
1D
0B
1A
10
01
13
1&
0$
1#
19
1>
0<
0E
0D
1B
0A
00
11
03
04
0'
0&
1$
0#
0=
#385000
1!
17
#390000
0!
07
1;
08
1G
1F
1E
1D
0B
01
13
14
15
16
1)
1(
1'
1&
0$
09
#395000
1!
17
#400000
1"
0!
1:
07
0;
0>
0@
18
1<
0F
0E
0D
1?
03
04
05
0(
0'
0&
19
1=
#405000
1!
17
#410000
0!
07
#415000
1!
17
#420000
0!
07
#425000
1!
17
#430000
0!
07
#435000
1!
17
#440000
0!
07
#445000
1!
17
#450000
0!
07
#455000
1!
17
#460000
0!
07
#465000
1!
17
#470000
0!
07
#475000
1!
17
#480000
0"
0!
0:
07
#485000
1!
17
#490000
0!
07
1;
08
1F
1E
1D
1A
10
13
14
15
1(
1'
1&
1#
09
#495000
1!
17
#500000
0!
07
0;
18
0F
0E
0D
0A
00
03
04
05
0(
0'
0&
0#
19
1>
0<
0G
1F
1C
12
15
06
0)
1(
1%
0=
#505000
1!
17
#510000
0!
07
1;
08
1E
0C
02
14
1'
0%
09
#515000
1!
17
#520000
0!
07
0;
18
0E
1C
12
04
0'
1%
19
0>
1<
1G
0F
0C
02
05
16
1)
0(
0%
1=
1@
0G
1E
1D
1A
0?
10
13
14
06
0)
1'
1&
1#
#525000
1!
17
#530000
0!
07
1;
08
0D
1B
0A
00
11
03
0&
1$
0#
09
#535000
1!
17
#540000
0!
07
0;
18
1D
0B
1A
10
01
13
1&
0$
1#
19
1>
0<
0E
0D
1B
0A
00
11
03
04
0'
0&
1$
0#
0=
#545000
1!
17
#550000
0!
07
1;
08
1G
1F
1E
1D
0B
01
13
14
15
16
1)
1(
1'
1&
0$
09
#555000
1!
17
#560000
1"
0!
1:
07
0;
0>
0@
18
1<
0F
0E
0D
1?
03
04
05
0(
0'
0&
19
1=
#565000
1!
17
#570000
0!
07
#575000
1!
17
#580000
0!
07
#585000
1!
17
#590000
0!
07
#595000
1!
17
#600000
0!
07
#605000
1!
17
#610000
0!
07
#615000
1!
17
#620000
0!
07
#625000
1!
17
#630000
0!
07
#635000
1!
17
#640000
0"
0!
0:
07
#645000
1!
17
#650000
0!
07
1;
08
1F
1E
1D
1A
10
13
14
15
1(
1'
1&
1#
09
#655000
1!
17
#660000
0!
07
0;
18
0F
0E
0D
0A
00
03
04
05
0(
0'
0&
0#
19
1>
0<
0G
1F
1C
12
15
06
0)
1(
1%
0=
#665000
1!
17
#670000
0!
07
1;
08
1E
0C
02
14
1'
0%
09
#675000
1!
17
#680000
0!
07
0;
18
0E
1C
12
04
0'
1%
19
0>
1<
1G
0F
0C
02
05
16
1)
0(
0%
1=
1@
0G
1E
1D
1A
0?
10
13
14
06
0)
1'
1&
1#
#685000
1!
17
#690000
0!
07
1;
08
0D
1B
0A
00
11
03
0&
1$
0#
09
#695000
1!
17
#700000
0!
07
0;
18
1D
0B
1A
10
01
13
1&
0$
1#
19
1>
0<
0E
0D
1B
0A
00
11
03
04
0'
0&
1$
0#
0=
#705000
1!
17
#710000
0!
07
1;
08
1G
1F
1E
1D
0B
01
13
14
15
16
1)
1(
1'
1&
0$
09
#715000
1!
17
#720000
1"
0!
1:
07
0;
0>
0@
18
1<
0F
0E
0D
1?
03
04
05
0(
0'
0&
19
1=
#725000
1!
17
#730000
0!
07
#735000
1!
17
#740000
0!
07
#745000
1!
17
#750000
0!
07
#755000
1!
17
#760000
0!
07
#765000
1!
17
#770000
0!
07
#775000
1!
17
#780000
0!
07
#785000
1!
17
#790000
0!
07
#795000
1!
17
#800000
0"
0!
0:
07
#805000
1!
17
#810000
0!
07
1;
08
1F
1E
1D
1A
10
13
14
15
1(
1'
1&
1#
09
#815000
1!
17
#820000
0!
07
0;
18
0F
0E
0D
0A
00
03
04
05
0(
0'
0&
0#
19
1>
0<
0G
1F
1C
12
15
06
0)
1(
1%
0=
#825000
1!
17
#830000
0!
07
1;
08
1E
0C
02
14
1'
0%
09
#835000
1!
17
#840000
0!
07
0;
18
0E
1C
12
04
0'
1%
19
0>
1<
1G
0F
0C
02
05
16
1)
0(
0%
1=
1@
0G
1E
1D
1A
0?
10
13
14
06
0)
1'
1&
1#
#845000
1!
17
#850000
0!
07
1;
08
0D
1B
0A
00
11
03
0&
1$
0#
09
#855000
1!
17
#860000
0!
07
0;
18
1D
0B
1A
10
01
13
1&
0$
1#
19
1>
0<
0E
0D
1B
0A
00
11
03
04
0'
0&
1$
0#
0=
#865000
1!
17
#870000
0!
07
1;
08
1G
1F
1E
1D
0B
01
13
14
15
16
1)
1(
1'
1&
0$
09
#875000
1!
17
#880000
1"
0!
1:
07
0;
0>
0@
18
1<
0F
0E
0D
1?
03
04
05
0(
0'
0&
19
1=
#885000
1!
17
#890000
0!
07
#895000
1!
17
#900000
0!
07
#905000
1!
17
#910000
0!
07
#915000
1!
17
#920000
0!
07
#925000
1!
17
#930000
0!
07
#935000
1!
17
#940000
0!
07
#945000
1!
17
#950000
0!
07
#955000
1!
17
#960000
0"
0!
0:
07
#965000
1!
17
#970000
0!
07
1;
08
1F
1E
1D
1A
10
13
14
15
1(
1'
1&
1#
09
#975000
1!
17
#980000
0!
07
0;
18
0F
0E
0D
0A
00
03
04
05
0(
0'
0&
0#
19
1>
0<
0G
1F
1C
12
15
06
0)
1(
1%
0=
#985000
1!
17
#990000
0!
07
1;
08
1E
0C
02
14
1'
0%
09
#995000
1!
17
