Aula03/Entrega02/simulation/qsim/DecodificadorII.msim.vcd
$comment
	File created using the following command:
		vcd file DecodificadorII.msim.vcd -direction
$end
$date
	Fri Sep 19 18:45:57 2025
$end
$version
	ModelSim Version 2020.1
$end
$timescale
	1ps
$end

$scope module DecodificadorII_vlg_vec_tst $end
$var reg 1 ! W $end
$var reg 1 " X $end
$var reg 1 # Y $end
$var reg 1 $ Z $end
$var wire 1 % a $end
$var wire 1 & b $end
$var wire 1 ' c $end
$var wire 1 ( d $end
$var wire 1 ) e $end
$var wire 1 * f $end
$var wire 1 + g $end

$scope module i1 $end
$var wire 1 , gnd $end
$var wire 1 - vcc $end
$var wire 1 . unknown $end
$var tri1 1 / devclrn $end
$var tri1 1 0 devpor $end
$var tri1 1 1 devoe $end
$var wire 1 2 a~output_o $end
$var wire 1 3 b~output_o $end
$var wire 1 4 c~output_o $end
$var wire 1 5 d~output_o $end
$var wire 1 6 e~output_o $end
$var wire 1 7 f~output_o $end
$var wire 1 8 g~output_o $end
$var wire 1 9 W~input_o $end
$var wire 1 : X~input_o $end
$var wire 1 ; Y~input_o $end
$var wire 1 < Z~input_o $end
$var wire 1 = inst26~0_combout $end
$var wire 1 > inst28~0_combout $end
$var wire 1 ? inst29~0_combout $end
$var wire 1 @ inst30~0_combout $end
$var wire 1 A inst23~0_combout $end
$var wire 1 B inst24~0_combout $end
$var wire 1 C inst25~0_combout $end
$upscope $end
$upscope $end
$enddefinitions $end
#0
$dumpvars
0!
0"
0#
0$
0%
0&
0'
0(
0)
0*
1+
0,
1-
x.
1/
10
11
02
03
04
05
06
07
18
09
0:
0;
0<
0=
0>
0?
0@
0A
0B
1C
$end
#10000
1$
1<
1B
1A
1@
1=
12
15
16
17
1*
1)
1(
1%
#20000
1#
0$
1;
0<
0C
0A
0@
1?
0=
02
14
05
06
08
0+
0)
0(
1'
0%
#30000
1$
1<
1A
0?
04
16
1)
0'
#40000
1"
0#
0$
1:
0;
0<
0B
1@
1=
12
15
07
0*
1(
1%
#50000
1$
1<
0@
1>
0=
02
13
05
0(
1&
0%
#60000
1#
0$
1;
0<
0A
06
0)
#70000
1$
1<
1C
1B
1A
1@
0>
03
15
16
17
18
1+
1*
1)
1(
0&
#80000
1!
0"
0#
0$
19
0:
0;
0<
0C
0B
0A
0@
05
06
07
08
0+
0*
0)
0(
#90000
1$
1<
1A
16
1)
#100000
1#
0$
1;
0<
1C
1B
1@
1?
1>
1=
12
13
14
15
17
18
1+
1*
1(
1'
1&
1%
#110000
1$
1<
#120000
1"
0#
0$
1:
0;
0<
#130000
1$
1<
#140000
1#
0$
1;
0<
#150000
1$
1<
